# Blender v2.69 (sub 0) OBJ File: 'lazershot.blend'
# www.blender.org
mtllib lazershot.mtl
o Cone
v -0.000000 0.324049 -2.998496
v 1.001708 0.000000 -3.779289
v -0.000000 -0.412967 -2.984374
v 0.000000 -0.000000 -0.080836
v -0.989499 0.000000 -3.779289
v 0.003426 -0.035700 -4.335978
usemtl Material.002
s off
f 3 4 5
f 1 4 2
f 5 4 1
f 2 4 3
f 5 1 6
f 3 5 6
f 2 3 6
f 1 2 6
