# Blender v2.69 (sub 0) OBJ File: ''
# www.blender.org
mtllib starfox.mtl
o Cube.001
v -1.186329 0.273649 -1.356941
v -1.160237 0.522793 -1.380197
v -1.083017 0.377752 -0.330517
v -0.991859 0.553417 -0.217419
v -3.750179 -0.232059 -2.596575
v -1.952952 0.672961 -1.887441
v -1.647266 0.175070 -1.787245
v -1.940874 0.412264 -0.762102
v -1.361058 0.560835 -1.508698
v -1.300341 0.386495 -0.439852
v -1.303099 0.248675 -1.465952
v -1.232276 0.517659 -0.355406
v -1.734767 1.431403 -2.430297
v 0.026676 0.436648 -1.210521
v 0.028906 -0.356658 2.518173
v 1.241252 0.273649 -1.356941
v 0.024595 1.476327 -1.331346
v 1.215161 0.522793 -1.380197
v 0.026676 0.167877 -0.279784
v 1.137941 0.377752 -0.330517
v 0.025523 0.721025 0.374227
v 1.046782 0.553417 -0.217419
v 0.018053 0.985691 -1.794277
v 3.805103 -0.232059 -2.596575
v 2.007876 0.672961 -1.887441
v 1.702190 0.175070 -1.787245
v 1.995798 0.412264 -0.762102
v 1.415982 0.560835 -1.508698
v 1.355265 0.386495 -0.439852
v 1.358023 0.248675 -1.465952
v 1.287200 0.517659 -0.355406
v 1.789691 1.431403 -2.430297
vt 0.000000 0.000000
vt 1.000000 0.000000
vt 1.000000 1.000000
vt 0.000000 1.000000
usemtl Material
s off
f 14/1 19/2 3/3 1/4
f 17/1 2/2 4/3 21/4
f 19/1 15/2 3/3
f 21/1 4/2 15/3
f 15/1 4/2 3/3
f 1/1 2/2 23/3
f 2/1 17/2 23/3
f 14/1 1/2 23/3
f 9/1 11/2 7/3 6/4
f 11/1 10/2 8/3 7/4
f 6/1 7/2 5/3
f 7/1 8/2 5/3
f 10/1 12/2 8/3
f 12/1 9/2 6/3 8/4
f 8/1 6/2 5/3
f 2/1 1/2 11/3 9/4
f 1/1 3/2 10/3 11/4
f 3/1 4/2 12/3 10/4
f 9/1 12/2 13/3
f 12/1 4/2 13/3
f 2/1 9/2 13/3
f 4/1 2/2 13/3
f 14/1 16/2 20/3 19/4
f 17/1 21/2 22/3 18/4
f 14/1 19/2 21/3 17/4
f 19/1 20/2 15/3
f 21/1 15/2 22/3
f 19/1 15/2 21/3
f 15/1 20/2 22/3
f 16/1 23/2 18/3
f 18/1 23/2 17/3
f 17/1 23/2 14/3
f 14/1 23/2 16/3
f 28/1 25/2 26/3 30/4
f 30/1 26/2 27/3 29/4
f 25/1 24/2 26/3
f 26/1 24/2 27/3
f 29/1 27/2 31/3
f 31/1 27/2 25/3 28/4
f 27/1 24/2 25/3
f 18/1 28/2 30/3 16/4
f 16/1 30/2 29/3 20/4
f 20/1 29/2 31/3 22/4
f 28/1 32/2 31/3
f 31/1 32/2 22/3
f 18/1 32/2 28/3
f 22/1 32/2 18/3
o Cube
v -1.186329 0.273649 -1.356941
v -1.160237 0.522793 -1.380197
v -1.083017 0.377752 -0.330517
v -0.991859 0.553417 -0.217419
v -3.750179 -0.232059 -2.596575
v -1.952952 0.672961 -1.887441
v -1.647266 0.175070 -1.787245
v -1.940874 0.412264 -0.762102
v -1.361058 0.560835 -1.508698
v -1.300341 0.386495 -0.439852
v -1.303099 0.248675 -1.465952
v -1.232276 0.517659 -0.355406
v -1.734767 1.431403 -2.430297
v 0.026676 0.436648 -1.210521
v 0.028906 -0.356658 2.518173
v 1.241252 0.273649 -1.356941
v 0.024595 1.476327 -1.331346
v 1.215161 0.522793 -1.380197
v 0.026676 0.167877 -0.279784
v 1.137941 0.377752 -0.330517
v 0.025523 0.721025 0.374227
v 1.046782 0.553417 -0.217419
v 0.018053 0.985691 -1.794277
v 3.805103 -0.232059 -2.596575
v 2.007876 0.672961 -1.887441
v 1.702190 0.175070 -1.787245
v 1.995798 0.412264 -0.762102
v 1.415982 0.560835 -1.508698
v 1.355265 0.386495 -0.439852
v 1.358023 0.248675 -1.465952
v 1.287200 0.517659 -0.355406
v 1.789691 1.431403 -2.430297
vt 0.000000 0.000000
vt 1.000000 0.000000
vt 1.000000 1.000000
vt 0.000000 1.000000
usemtl Material
s off
f 46/5 51/6 35/7 33/8
f 49/5 34/6 36/7 53/8
f 51/5 47/6 35/7
f 53/5 36/6 47/7
f 47/5 36/6 35/7
f 33/5 34/6 55/7
f 34/5 49/6 55/7
f 46/5 33/6 55/7
f 41/5 43/6 39/7 38/8
f 43/5 42/6 40/7 39/8
f 38/5 39/6 37/7
f 39/5 40/6 37/7
f 42/5 44/6 40/7
f 44/5 41/6 38/7 40/8
f 40/5 38/6 37/7
f 34/5 33/6 43/7 41/8
f 33/5 35/6 42/7 43/8
f 35/5 36/6 44/7 42/8
f 41/5 44/6 45/7
f 44/5 36/6 45/7
f 34/5 41/6 45/7
f 36/5 34/6 45/7
f 46/5 48/6 52/7 51/8
f 49/5 53/6 54/7 50/8
f 46/5 51/6 53/7 49/8
f 51/5 52/6 47/7
f 53/5 47/6 54/7
f 51/5 47/6 53/7
f 47/5 52/6 54/7
f 48/5 55/6 50/7
f 50/5 55/6 49/7
f 49/5 55/6 46/7
f 46/5 55/6 48/7
f 60/5 57/6 58/7 62/8
f 62/5 58/6 59/7 61/8
f 57/5 56/6 58/7
f 58/5 56/6 59/7
f 61/5 59/6 63/7
f 63/5 59/6 57/7 60/8
f 59/5 56/6 57/7
f 50/5 60/6 62/7 48/8
f 48/5 62/6 61/7 52/8
f 52/5 61/6 63/7 54/8
f 60/5 64/6 63/7
f 63/5 64/6 54/7
f 50/5 64/6 60/7
f 54/5 64/6 50/7
