<?xml version="1.0" encoding="utf-8"?>
<COLLADA xmlns="http://www.collada.org/2005/11/COLLADASchema" version="1.4.1">
  <asset>
    <contributor>
      <author>Blender User</author>
      <authoring_tool>Blender 2.71.0 commit date:2014-06-25, commit time:18:36, hash:9337574</authoring_tool>
    </contributor>
    <created>2014-08-18T09:10:12</created>
    <modified>2014-08-18T09:10:12</modified>
    <unit name="meter" meter="1"/>
    <up_axis>Z_UP</up_axis>
  </asset>
  <library_images/>
  <library_effects>
    <effect id="initialShadingGroup_004-effect">
      <profile_COMMON>
        <technique sid="common">
          <phong>
            <emission>
              <color sid="emission">0 0 0 1</color>
            </emission>
            <ambient>
              <color sid="ambient">0 0 0 1</color>
            </ambient>
            <diffuse>
              <color sid="diffuse">0.64 0.64 0.64 1</color>
            </diffuse>
            <specular>
              <color sid="specular">0.5 0.5 0.5 1</color>
            </specular>
            <shininess>
              <float sid="shininess">50</float>
            </shininess>
            <index_of_refraction>
              <float sid="index_of_refraction">1</float>
            </index_of_refraction>
          </phong>
        </technique>
      </profile_COMMON>
    </effect>
  </library_effects>
  <library_materials>
    <material id="initialShadingGroup_004-material" name="initialShadingGroup_004">
      <instance_effect url="#initialShadingGroup_004-effect"/>
    </material>
  </library_materials>
  <library_geometries>
    <geometry id="polySurface25_001-mesh" name="polySurface25.001">
      <mesh>
        <source id="polySurface25_001-mesh-positions">
          <float_array id="polySurface25_001-mesh-positions-array" count="312">-0.5 0.4999993 0.5000007 0.5 0.4999993 0.5000007 0.5 0.5000007 -0.4499993 -0.5 0.5000007 -0.4999993 -0.283333 0.8007909 -1.318294 0.283333 0.8007909 -1.318294 0.283333 0.2341241 -1.464772 -0.283333 0.2341241 -1.464772 -0.193028 -2.258156 -0.1930313 0.193028 -2.258156 -0.1930313 0.193028 -2.258156 0.1930247 -0.193028 -2.258156 0.1930247 -0.283333 0.2341198 1.464772 0.283333 0.2341198 1.464772 0.283333 0.8007871 1.318296 -0.283333 0.8007871 1.318296 1.318295 0.8007886 0.2833341 1.464772 0.2341216 0.2833333 1.464772 0.2341223 -0.2833327 1.318295 0.8007894 -0.2833319 -1.464772 0.2341216 0.2833333 -1.318295 0.8007886 0.2833341 -1.318295 0.8007894 -0.2833319 -1.464772 0.2341223 -0.2833327 -0.5 -0.4999993 -0.5000007 0.5 -0.4999994 -0.4500007 0.5 -0.5000007 0.4999993 -0.5 -0.5000007 0.4999993 -0.302437 1.966751 0.3024398 0.302437 1.966751 0.3024398 0.302437 1.966751 -0.3024342 -0.302437 1.966751 -0.3024342 0.477241 0.7768597 -0.4772399 -0.477241 0.7768597 -0.4772399 -0.3625 0.3009675 -0.3624995 0.3625 0.3009675 -0.3624995 0.3625 0.3009665 0.3625004 -0.3625 0.3009665 0.3625004 -0.477241 0.7768583 0.4772421 0.477241 0.7768583 0.4772421 -0.07028096 1.211037 0.1063297 -0.07028096 1.211037 0.05701273 -0.674269 1.201975 0.05701273 -0.674269 1.201975 0.1063297 -0.954096 0.4730008 0.1045677 -0.954096 0.4730007 0.1950237 -0.511309 0.06211882 0.1045671 -0.511309 0.0621187 0.1950231 -0.07028096 1.211037 -0.1063262 -0.511309 0.06211924 -0.1950229 -0.954096 0.4730013 -0.1950223 -0.674269 1.201975 -0.1063262 -0.674269 1.201975 -0.05700922 -0.954096 0.4730011 -0.1045663 -0.511309 0.06211912 -0.1045669 -0.07028096 1.211037 -0.05700922 -0.106328 1.211037 -0.07027924 -0.05701094 1.211037 -0.07027924 -0.05701094 1.201976 -0.6742673 -0.106328 1.201976 -0.6742673 -0.104567 0.4730024 -0.9540954 -0.195023 0.4730024 -0.9540954 -0.104567 0.06211972 -0.511309 -0.195023 0.06211972 -0.511309 0.106328 1.211037 -0.07027924 0.195023 0.06211972 -0.511309 0.195023 0.4730024 -0.9540954 0.106328 1.201976 -0.6742673 0.05701094 1.201976 -0.6742673 0.104567 0.4730024 -0.9540954 0.104567 0.06211972 -0.511309 0.05701094 1.211037 -0.07027924 0.106328 1.211037 0.07028269 0.05701094 1.211037 0.07028269 0.05701094 1.201974 0.6742708 0.106328 1.201974 0.6742708 0.104567 0.4729996 0.9540967 0.195023 0.4729996 0.9540967 0.104567 0.06211823 0.5113091 0.195023 0.06211823 0.5113091 -0.106328 1.211037 0.07028269 -0.195023 0.06211823 0.5113091 -0.195023 0.4729996 0.9540967 -0.106328 1.201974 0.6742708 -0.05701094 1.201974 0.6742708 -0.104567 0.4729996 0.9540967 -0.104567 0.06211823 0.5113091 -0.05701094 1.211037 0.07028269 0.07028096 1.211037 -0.1063262 0.07028096 1.211037 -0.05700922 0.674269 1.201975 -0.05700922 0.674269 1.201975 -0.1063262 0.954096 0.4730011 -0.1045663 0.954096 0.4730013 -0.1950223 0.511309 0.06211912 -0.1045669 0.511309 0.06211924 -0.1950229 0.07028096 1.211037 0.1063297 0.511309 0.0621187 0.1950231 0.954096 0.4730007 0.1950237 0.674269 1.201975 0.1063297 0.674269 1.201975 0.05701273 0.954096 0.4730008 0.1045677 0.511309 0.06211882 0.1045671 0.07028096 1.211037 0.05701273</float_array>
          <technique_common>
            <accessor source="#polySurface25_001-mesh-positions-array" count="104" stride="3">
              <param name="X" type="float"/>
              <param name="Y" type="float"/>
              <param name="Z" type="float"/>
            </accessor>
          </technique_common>
        </source>
        <source id="polySurface25_001-mesh-normals">
          <float_array id="polySurface25_001-mesh-normals-array" count="552">0 1 1.44306e-6 0 0.2502644 -0.9681776 0 -1 -1.23515e-6 0 0.2502616 0.9681783 0.9681779 0.250263 3.55372e-7 -0.9681779 0.250263 3.68534e-7 0 -0.1446219 -0.9894869 0.9850975 -0.1719968 -2.42806e-7 0 -0.1719983 0.9850973 -0.9850975 -0.1719968 -2.12442e-7 -0.01654845 0.9434959 0.3309705 0.9779569 2.987e-7 -0.2088065 0 -0.7958055 -0.6055525 -0.9701993 0.06064116 -0.2345975 0 -0.7958073 0.6055502 0.9701993 0.06064045 0.2345977 0 0.9385994 -0.3450089 -0.9756978 -3.13455e-7 0.2191207 0.2191207 -1.39575e-6 0.9756978 0.6055513 -0.7958063 -1.13004e-6 0.1826624 0.04721754 -0.9820412 -0.3450103 0.9385989 1.35445e-6 -0.2345976 0.06063944 0.9701994 0.3450103 0.938599 1.34268e-6 -0.2191207 1.39575e-6 -0.9756978 -0.6055513 -0.7958064 -1.13841e-6 0 1 1.18249e-6 0 0.1453488 -0.9893804 0 -1 -1.47984e-6 0 0.1453459 0.9893809 0.9893807 0.1453474 1.99684e-7 -0.9893807 0.1453474 1.71871e-7 -0.9721425 -0.2343906 -3.22014e-7 0 -0.2343919 0.9721422 0.9721425 -0.2343905 -3.4686e-7 0 -0.2343893 -0.9721428 -0.01500195 0.9998875 0 -0.9335804 0.3583681 0 -0.6802045 -0.7330224 -1.05659e-6 0.9335805 -0.3583678 0 0.05266249 0.05675315 -0.9969984 -0.001822471 0.121468 0.9925938 -0.9335804 0.3583681 4.72283e-7 -0.6802045 -0.7330224 -9.66029e-7 0.9335805 -0.3583678 -5.16559e-7 -0.01500195 0.9998875 0 -0.9335804 0.358368 7.49343e-7 -0.6802045 -0.7330224 -1.04458e-6 0.9335804 -0.3583678 -5.23454e-7 -0.01500195 0.9998874 2.09075e-6 0 0.9998875 -0.01500058 0 0.3583694 -0.9335798 0 -0.7330213 -0.6802055 0 -0.3583691 0.93358 0.9969984 0.05675166 0.05266255 -0.9925936 0.1214694 -0.001822292 0 0.3583694 -0.9335799 0 -0.7330213 -0.6802055 0 -0.3583691 0.9335801 0 0.9998875 -0.01500058 0 0.3583694 -0.9335799 0 -0.7330214 -0.6802056 0 -0.3583691 0.9335799 0 0.9998875 -0.01500058 0 0.9998874 0.01500338 0 0.3583667 0.9335809 0 -0.7330234 0.6802034 0 -0.3583664 -0.9335811 -0.9969984 0.05675184 -0.05266243 0.9925935 0.1214694 0.00182265 0 0.3583667 0.9335809 0 -0.7330234 0.6802034 0 -0.3583664 -0.933581 0 0.9998874 0.01500338 0 0.3583667 0.9335809 0 -0.7330234 0.6802035 0 -0.3583664 -0.9335811 0 0.9998875 0.01500338 0.01500195 0.9998875 0 0.9335803 0.358368 0 0.6802045 -0.7330224 -9.66029e-7 -0.9335806 -0.3583678 0 -0.05266249 0.05675029 0.9969986 0.001822471 0.1214708 -0.9925934 0.9335804 0.358368 4.72283e-7 0.6802045 -0.7330223 -9.66028e-7 -0.9335805 -0.3583678 -5.16559e-7 0.01500195 0.9998875 0 0.9335803 0.358368 5.10687e-7 0.6802045 -0.7330224 -1.04458e-6 -0.9335805 -0.3583678 -5.23454e-7 0.01500195 0.9998874 2.09075e-6 0 1 1.43051e-6 0 0.2502644 -0.9681776 0 -1 -1.23515e-6 0 0.2502616 0.9681783 0.9681779 0.250263 3.59427e-7 -0.9681779 0.250263 3.55372e-7 0.04926615 -0.163433 -0.9853236 0.9850975 -0.1719968 -1.73014e-7 0 -0.1719983 0.9850973 -0.9850975 -0.1719968 -2.46043e-7 0 0.9385983 0.3450117 0.9731436 0.05761051 -0.222873 0.02950036 -0.8068572 -0.5900095 -0.9756978 3.13455e-7 -0.2191207 0 -0.7958072 0.6055502 0.9756978 -3.13455e-7 0.2191207 0 0.9385994 -0.3450089 -0.9701993 0.06064045 0.2345977 0.2345976 0.06063944 0.9701994 0.6055513 -0.7958062 -1.12343e-6 0.1702312 1.40963e-6 -0.9854042 -0.3450103 0.9385989 1.38746e-6 -0.2191207 -1.39575e-6 0.9756978 0.3450103 0.9385989 1.3573e-6 -0.2345976 0.06064218 -0.9701992 -0.6055513 -0.7958064 -1.21469e-6 0 1 1.18249e-6 0 0.1453488 -0.9893804 0 -1 -1.47984e-6 0 0.1453459 0.9893808 0.9893807 0.1453474 1.63871e-7 -0.9893807 0.1453474 1.99684e-7 -0.9721425 -0.2343905 -3.46384e-7 0 -0.2343919 0.9721422 0.9721425 -0.2343906 -3.22014e-7 0 -0.2343893 -0.9721428 -0.01500195 0.9998875 0 -0.9335804 0.358368 4.21942e-7 -0.6802045 -0.7330223 -9.66028e-7 0.9335805 -0.3583678 -5.16559e-7 -0.001822471 0.1214708 -0.9925934 0.05266249 0.05675029 0.9969986 -0.9335803 0.358368 0 -0.6802045 -0.7330224 -1.05659e-6 0.9335805 -0.3583678 0 -0.01500195 0.9998874 0 -0.9335803 0.358368 3.65002e-7 -0.6802045 -0.7330224 -1.0707e-6 0.9335805 -0.3583677 -7.49342e-7 -0.01500195 0.9998874 2.09588e-6 0 0.9998875 -0.01500058 0 0.3583694 -0.9335799 0 -0.7330213 -0.6802055 0 -0.3583691 0.9335801 0.9925936 0.1214694 -0.001822292 -0.9969984 0.05675166 0.05266255 0 0.3583694 -0.9335798 0 -0.7330213 -0.6802055 0 -0.3583691 0.9335801 0 0.9998875 -0.01500058 0 0.3583695 -0.9335799 0 -0.7330214 -0.6802056 0 -0.3583691 0.93358 0 0.9998875 -0.01500058 0 0.9998874 0.01500338 0 0.3583667 0.9335809 0 -0.7330234 0.6802034 0 -0.3583664 -0.933581 -0.9925935 0.1214694 0.00182265 0.9969984 0.05675184 -0.05266243 0 0.3583667 0.9335809 0 -0.7330234 0.6802034 0 -0.3583664 -0.9335811 0 0.9998874 0.01500338 0 0.3583667 0.9335809 0 -0.7330234 0.6802035 0 -0.3583664 -0.933581 0 0.9998875 0.01500338 0.01500195 0.9998874 0 0.9335803 0.358368 4.21942e-7 0.6802045 -0.7330224 -8.18138e-7 -0.9335805 -0.3583678 -5.16559e-7 0.001822471 0.121468 0.9925937 -0.05266249 0.05675315 -0.9969984 0.9335804 0.3583681 0 0.6802045 -0.7330224 -1.09085e-6 -0.9335805 -0.3583678 0 0.01500195 0.9998875 0 0.9335804 0.358368 7.49343e-7 0.6802046 -0.7330224 -1.0707e-6 -0.9335805 -0.3583678 -7.49343e-7 0.01500195 0.9998874 2.09075e-6</float_array>
          <technique_common>
            <accessor source="#polySurface25_001-mesh-normals-array" count="184" stride="3">
              <param name="X" type="float"/>
              <param name="Y" type="float"/>
              <param name="Z" type="float"/>
            </accessor>
          </technique_common>
        </source>
        <source id="polySurface25_001-mesh-map-0">
          <float_array id="polySurface25_001-mesh-map-0-array" count="1104">0.375 0 0.625 0 0.625 0.25 0.375 0.25 0.625 0.25 0.625 0.5 0.375 0.5 0.625 0.5 0.625 0.75 0.375 0.75 0.625 0.75 0.625 1 0.875 0 0.875 0.25 0.625 0.25 0.125 0 0.375 0 0.375 0.25 0.625 0.5 0.625 0.5 0.375 0.5 0.625 0.5 0.625 0.75 0.625 0.75 0.625 0.75 0.375 0.75 0.375 0.75 0.375 0.5 0.375 0.5 0.375 0.75 0.375 0.25 0.625 0.25 0.625 0.25 0.625 0.25 0.625 0.5 0.625 0.5 0.375 0.5 0.375 0.5 0.625 0.5 0.375 0.25 0.375 0.25 0.375 0.5 0.375 0.75 0.625 0.75 0.625 0.75 0.625 1 0.625 1 0.625 0.75 0.625 1 0.375 1 0.375 1 0.375 1 0.375 0.75 0.375 0.75 0.625 0 0.875 0 0.875 0 0.875 0.25 0.875 0.25 0.875 0 0.625 0.25 0.625 0.25 0.875 0.25 0.625 0.25 0.625 0 0.625 0 0.375 0 0.375 0 0.125 0 0.375 0 0.375 0.25 0.375 0.25 0.375 0.25 0.125 0.25 0.125 0.25 0.125 0.25 0.125 0 0.125 0 0.375 0 0.625 0 0.625 0.25 0.375 0.25 0.625 0.25 0.625 0.402795 0.375 0.5 0.625 0.5 0.625 0.75 0.375 0.847205 0.625 0.847205 0.625 1 0.777795 0 0.777795 0.25 0.625 0.25 0.222205 0 0.375 0 0.375 0.25 0.222205 0 0.222205 0.25 0.125 0.25 0.375 0.75 0.625 0.75 0.625 0.847205 0.777795 0 0.875 0 0.875 0.25 0.375 0.402795 0.625 0.402795 0.625 0.5 0.375 0 0.458333 0 0.458333 0.25 0.375 0.25 0.458333 0.25 0.458333 0.5 0.458333 0.5 0.458333 0.75 0.375 0.75 0.458333 0.75 0.458333 1 0.375 1 0.625 0 0.875 0 0.875 0.25 0.375 0 0.375 0.25 0.125 0.25 0.625 0.25 0.625 0.5 0.541667 0.5 0.541667 0.75 0.541667 0.5 0.625 0.5 0.541667 0.75 0.625 0.75 0.625 1 0.541667 0.25 0.541667 0 0.625 0 0.458333 0.25 0.541667 0.25 0.541667 0.5 0.458333 0.75 0.458333 0.5 0.541667 0.5 0.458333 1 0.458333 0.75 0.541667 0.75 0.458333 0 0.541667 0 0.541667 0.25 0.375 0 0.458333 0 0.458333 0.25 0.375 0.25 0.458333 0.25 0.458333 0.5 0.375 0.5 0.458333 0.5 0.458333 0.75 0.458333 0.75 0.458333 1 0.375 1 0.625 0 0.875 0 0.875 0.25 0.375 0 0.375 0.25 0.125 0.25 0.625 0.25 0.625 0.5 0.541667 0.5 0.541667 0.75 0.541667 0.5 0.625 0.5 0.541667 0.75 0.625 0.75 0.625 1 0.541667 0.25 0.541667 0 0.625 0 0.458333 0.25 0.541667 0.25 0.541667 0.5 0.458333 0.75 0.458333 0.5 0.541667 0.5 0.458333 1 0.458333 0.75 0.541667 0.75 0.458333 0.25 0.458333 0 0.541667 0 0.375 0 0.458333 0 0.458333 0.25 0.375 0.25 0.458333 0.25 0.458333 0.5 0.375 0.5 0.458333 0.5 0.458333 0.75 0.458333 0.75 0.458333 1 0.375 1 0.625 0 0.875 0 0.875 0.25 0.375 0 0.375 0.25 0.125 0.25 0.625 0.25 0.625 0.5 0.541667 0.5 0.541667 0.75 0.541667 0.5 0.625 0.5 0.541667 0.75 0.625 0.75 0.625 1 0.541667 0.25 0.541667 0 0.625 0 0.458333 0.25 0.541667 0.25 0.541667 0.5 0.458333 0.75 0.458333 0.5 0.541667 0.5 0.458333 1 0.458333 0.75 0.541667 0.75 0.458333 0.25 0.458333 0 0.541667 0 0.375 0 0.458333 0 0.458333 0.25 0.375 0.25 0.458333 0.25 0.458333 0.5 0.375 0.5 0.458333 0.5 0.458333 0.75 0.458333 0.75 0.458333 1 0.375 1 0.625 0 0.875 0 0.875 0.25 0.375 0 0.375 0.25 0.125 0.25 0.625 0.25 0.625 0.5 0.541667 0.5 0.541667 0.5 0.625 0.5 0.625 0.75 0.541667 0.75 0.625 0.75 0.625 1 0.541667 0.25 0.541667 0 0.625 0 0.541667 0.25 0.541667 0.5 0.458333 0.5 0.458333 0.75 0.458333 0.5 0.541667 0.5 0.458333 1 0.458333 0.75 0.541667 0.75 0.458333 0.25 0.458333 0 0.541667 0 0.375 0.25 0.375 0 0.625 0.25 0.375 0.5 0.375 0.25 0.625 0.5 0.375 0.75 0.375 0.5 0.625 0.75 0.375 1 0.375 0.75 0.625 1 0.625 0 0.875 0 0.625 0.25 0.125 0.25 0.125 0 0.375 0.25 0.375 0.5 0.625 0.5 0.375 0.5 0.625 0.5 0.625 0.5 0.625 0.75 0.625 0.75 0.625 0.75 0.375 0.75 0.375 0.75 0.375 0.5 0.375 0.75 0.375 0.25 0.375 0.25 0.625 0.25 0.625 0.25 0.625 0.25 0.625 0.5 0.625 0.5 0.375 0.5 0.625 0.5 0.375 0.5 0.375 0.25 0.375 0.5 0.375 0.75 0.375 0.75 0.625 0.75 0.625 0.75 0.625 1 0.625 0.75 0.625 1 0.625 1 0.375 1 0.375 1 0.375 1 0.375 0.75 0.625 0 0.625 0 0.875 0 0.875 0 0.875 0.25 0.875 0 0.875 0.25 0.625 0.25 0.875 0.25 0.625 0.25 0.625 0.25 0.625 0 0.125 0 0.375 0 0.125 0 0.375 0 0.375 0 0.375 0.25 0.375 0.25 0.375 0.25 0.125 0.25 0.125 0.25 0.125 0.25 0.125 0 0.375 0.25 0.375 0 0.625 0.25 0.375 0.402795 0.375 0.25 0.625 0.402795 0.375 0.75 0.375 0.5 0.625 0.75 0.375 1 0.375 0.847205 0.625 1 0.625 0 0.777795 0 0.625 0.25 0.222205 0.25 0.222205 0 0.375 0.25 0.125 0 0.222205 0 0.125 0.25 0.375 0.847205 0.375 0.75 0.625 0.847205 0.777795 0.25 0.777795 0 0.875 0.25 0.375 0.5 0.375 0.402795 0.625 0.5 0.375 0.25 0.375 0 0.458333 0.25 0.375 0.5 0.375 0.25 0.458333 0.5 0.375 0.5 0.458333 0.5 0.375 0.75 0.375 0.75 0.458333 0.75 0.375 1 0.625 0.25 0.625 0 0.875 0.25 0.125 0 0.375 0 0.125 0.25 0.541667 0.25 0.625 0.25 0.541667 0.5 0.625 0.75 0.541667 0.75 0.625 0.5 0.541667 1 0.541667 0.75 0.625 1 0.625 0.25 0.541667 0.25 0.625 0 0.458333 0.5 0.458333 0.25 0.541667 0.5 0.541667 0.75 0.458333 0.75 0.541667 0.5 0.541667 1 0.458333 1 0.541667 0.75 0.458333 0.25 0.458333 0 0.541667 0.25 0.375 0.25 0.375 0 0.458333 0.25 0.375 0.5 0.375 0.25 0.458333 0.5 0.375 0.75 0.375 0.5 0.458333 0.75 0.375 0.75 0.458333 0.75 0.375 1 0.625 0.25 0.625 0 0.875 0.25 0.125 0 0.375 0 0.125 0.25 0.541667 0.25 0.625 0.25 0.541667 0.5 0.625 0.75 0.541667 0.75 0.625 0.5 0.541667 1 0.541667 0.75 0.625 1 0.625 0.25 0.541667 0.25 0.625 0 0.458333 0.5 0.458333 0.25 0.541667 0.5 0.541667 0.75 0.458333 0.75 0.541667 0.5 0.541667 1 0.458333 1 0.541667 0.75 0.541667 0.25 0.458333 0.25 0.541667 0 0.375 0.25 0.375 0 0.458333 0.25 0.375 0.5 0.375 0.25 0.458333 0.5 0.375 0.75 0.375 0.5 0.458333 0.75 0.375 0.75 0.458333 0.75 0.375 1 0.625 0.25 0.625 0 0.875 0.25 0.125 0 0.375 0 0.125 0.25 0.541667 0.25 0.625 0.25 0.541667 0.5 0.625 0.75 0.541667 0.75 0.625 0.5 0.541667 1 0.541667 0.75 0.625 1 0.625 0.25 0.541667 0.25 0.625 0 0.458333 0.5 0.458333 0.25 0.541667 0.5 0.541667 0.75 0.458333 0.75 0.541667 0.5 0.541667 1 0.458333 1 0.541667 0.75 0.541667 0.25 0.458333 0.25 0.541667 0 0.375 0.25 0.375 0 0.458333 0.25 0.375 0.5 0.375 0.25 0.458333 0.5 0.375 0.75 0.375 0.5 0.458333 0.75 0.375 0.75 0.458333 0.75 0.375 1 0.625 0.25 0.625 0 0.875 0.25 0.125 0 0.375 0 0.125 0.25 0.541667 0.25 0.625 0.25 0.541667 0.5 0.541667 0.75 0.541667 0.5 0.625 0.75 0.541667 1 0.541667 0.75 0.625 1 0.625 0.25 0.541667 0.25 0.625 0 0.458333 0.25 0.541667 0.25 0.458333 0.5 0.541667 0.75 0.458333 0.75 0.541667 0.5 0.541667 1 0.458333 1 0.541667 0.75 0.541667 0.25 0.458333 0.25 0.541667 0</float_array>
          <technique_common>
            <accessor source="#polySurface25_001-mesh-map-0-array" count="552" stride="2">
              <param name="S" type="float"/>
              <param name="T" type="float"/>
            </accessor>
          </technique_common>
        </source>
        <vertices id="polySurface25_001-mesh-vertices">
          <input semantic="POSITION" source="#polySurface25_001-mesh-positions"/>
        </vertices>
        <polylist material="initialShadingGroup_004-material" count="184">
          <input semantic="VERTEX" source="#polySurface25_001-mesh-vertices" offset="0"/>
          <input semantic="NORMAL" source="#polySurface25_001-mesh-normals" offset="1"/>
          <input semantic="TEXCOORD" source="#polySurface25_001-mesh-map-0" offset="2" set="0"/>
          <vcount>3 3 3 3 3 3 3 3 3 3 3 3 3 3 3 3 3 3 3 3 3 3 3 3 3 3 3 3 3 3 3 3 3 3 3 3 3 3 3 3 3 3 3 3 3 3 3 3 3 3 3 3 3 3 3 3 3 3 3 3 3 3 3 3 3 3 3 3 3 3 3 3 3 3 3 3 3 3 3 3 3 3 3 3 3 3 3 3 3 3 3 3 3 3 3 3 3 3 3 3 3 3 3 3 3 3 3 3 3 3 3 3 3 3 3 3 3 3 3 3 3 3 3 3 3 3 3 3 3 3 3 3 3 3 3 3 3 3 3 3 3 3 3 3 3 3 3 3 3 3 3 3 3 3 3 3 3 3 3 3 3 3 3 3 3 3 3 3 3 3 3 3 3 3 3 3 3 3 3 3 3 3 3 3 </vcount>
          <p>0 0 0 1 0 1 2 0 2 4 1 3 5 1 4 6 1 5 8 2 6 9 2 7 10 2 8 12 3 9 13 3 10 14 3 11 17 4 12 18 4 13 19 4 14 20 5 15 21 5 16 22 5 17 25 6 18 9 6 19 8 6 20 25 7 21 26 7 22 10 7 23 26 8 24 27 8 25 11 8 26 24 9 27 8 9 28 11 9 29 3 10 30 2 10 31 5 10 32 2 11 33 25 11 34 6 11 35 24 12 36 7 12 37 6 12 38 3 13 39 4 13 40 7 13 41 27 14 42 26 14 43 13 14 44 1 15 45 14 15 46 13 15 47 1 16 48 0 16 49 15 16 50 0 17 51 27 17 52 12 17 53 1 18 54 26 18 55 17 18 56 25 19 57 18 19 58 17 19 59 2 20 60 19 20 61 18 20 62 2 21 63 1 21 64 16 21 65 0 22 66 21 22 67 20 22 68 0 23 69 3 23 70 22 23 71 3 24 72 24 24 73 23 24 74 24 25 75 27 25 76 20 25 77 28 26 78 29 26 79 30 26 80 31 27 81 30 27 82 32 27 83 34 28 84 35 28 85 36 28 86 38 29 87 39 29 88 29 29 89 39 30 90 32 30 91 30 30 92 38 31 93 28 31 94 31 31 95 38 32 96 33 32 97 34 32 98 37 33 99 36 33 100 39 33 101 39 34 102 36 34 103 35 34 104 33 35 105 32 35 106 35 35 107 40 36 108 41 36 109 42 36 110 43 37 111 42 37 112 44 37 113 44 38 114 46 38 115 47 38 116 46 39 117 41 39 118 40 39 119 48 40 120 49 40 121 50 40 122 40 41 123 43 41 124 45 41 125 51 42 126 50 42 127 53 42 128 54 43 129 53 43 130 50 43 131 54 44 132 49 44 133 48 44 134 52 45 135 55 45 136 48 45 137 42 46 138 52 46 139 53 46 140 46 47 141 44 47 142 53 47 143 41 48 144 46 48 145 54 48 146 41 49 147 55 49 148 52 49 149 56 50 150 57 50 151 58 50 152 59 51 153 58 51 154 60 51 155 61 52 156 60 52 157 62 52 158 62 53 159 57 53 160 56 53 161 64 54 162 65 54 163 66 54 164 56 55 165 59 55 166 61 55 167 67 56 168 66 56 169 69 56 170 70 57 171 69 57 172 66 57 173 70 58 174 65 58 175 64 58 176 68 59 177 71 59 178 64 59 179 58 60 180 68 60 181 69 60 182 62 61 183 60 61 184 69 61 185 57 62 186 62 62 187 70 62 188 58 63 189 57 63 190 71 63 191 72 64 192 73 64 193 74 64 194 75 65 195 74 65 196 76 65 197 77 66 198 76 66 199 78 66 200 78 67 201 73 67 202 72 67 203 80 68 204 81 68 205 82 68 206 72 69 207 75 69 208 77 69 209 83 70 210 82 70 211 85 70 212 86 71 213 85 71 214 82 71 215 86 72 216 81 72 217 80 72 218 84 73 219 87 73 220 80 73 221 74 74 222 84 74 223 85 74 224 78 75 225 76 75 226 85 75 227 73 76 228 78 76 229 86 76 230 74 77 231 73 77 232 87 77 233 88 78 234 89 78 235 90 78 236 91 79 237 90 79 238 92 79 239 93 80 240 92 80 241 94 80 242 94 81 243 89 81 244 88 81 245 96 82 246 97 82 247 98 82 248 88 83 249 91 83 250 93 83 251 99 84 252 98 84 253 101 84 254 101 85 255 98 85 256 97 85 257 102 86 258 97 86 259 96 86 260 100 87 261 103 87 262 96 87 263 100 88 264 101 88 265 92 88 266 94 89 267 92 89 268 101 89 269 89 90 270 94 90 271 102 90 272 90 91 273 89 91 274 103 91 275 3 92 276 0 92 277 2 92 278 7 93 279 4 93 280 6 93 281 11 94 282 8 94 283 10 94 284 15 95 285 12 95 286 14 95 287 16 96 288 17 96 289 19 96 290 23 97 291 20 97 292 22 97 293 24 98 294 25 98 295 8 98 296 9 99 297 25 99 298 10 99 299 10 100 300 26 100 301 11 100 302 27 101 303 24 101 304 11 101 305 4 102 306 3 102 307 5 102 308 5 103 309 2 103 310 6 103 311 25 104 312 24 104 313 6 104 314 24 105 315 3 105 316 7 105 317 12 106 318 27 106 319 13 106 320 26 107 321 1 107 322 13 107 323 14 108 324 1 108 325 15 108 326 15 109 327 0 109 328 12 109 329 16 110 330 1 110 331 17 110 332 26 111 333 25 111 334 17 111 335 25 112 336 2 112 337 18 112 338 19 113 339 2 113 340 16 113 341 27 114 342 0 114 343 20 114 344 21 115 345 0 115 346 22 115 347 22 116 348 3 116 349 23 116 350 23 117 351 24 117 352 20 117 353 31 118 354 28 118 355 30 118 356 33 119 357 31 119 358 32 119 359 37 120 360 34 120 361 36 120 362 28 121 363 38 121 364 29 121 365 29 122 366 39 122 367 30 122 368 33 123 369 38 123 370 31 123 371 37 124 372 38 124 373 34 124 374 38 125 375 37 125 376 39 125 377 32 126 378 39 126 379 35 126 380 34 127 381 33 127 382 35 127 383 43 128 384 40 128 385 42 128 386 45 129 387 43 129 388 44 129 389 45 130 390 44 130 391 47 130 392 47 131 393 46 131 394 40 131 395 51 132 396 48 132 397 50 132 398 47 133 399 40 133 400 45 133 401 52 134 402 51 134 403 53 134 404 49 135 405 54 135 406 50 135 407 55 136 408 54 136 409 48 136 410 51 137 411 52 137 412 48 137 413 44 138 414 42 138 415 53 138 416 54 139 417 46 139 418 53 139 419 55 140 420 41 140 421 54 140 422 42 141 423 41 141 424 52 141 425 59 142 426 56 142 427 58 142 428 61 143 429 59 143 430 60 143 431 63 144 432 61 144 433 62 144 434 63 145 435 62 145 436 56 145 437 67 146 438 64 146 439 66 146 440 63 147 441 56 147 442 61 147 443 68 148 444 67 148 445 69 148 446 65 149 447 70 149 448 66 149 449 71 150 450 70 150 451 64 150 452 67 151 453 68 151 454 64 151 455 60 152 456 58 152 457 69 152 458 70 153 459 62 153 460 69 153 461 71 154 462 57 154 463 70 154 464 68 155 465 58 155 466 71 155 467 75 156 468 72 156 469 74 156 470 77 157 471 75 157 472 76 157 473 79 158 474 77 158 475 78 158 476 79 159 477 78 159 478 72 159 479 83 160 480 80 160 481 82 160 482 79 161 483 72 161 484 77 161 485 84 162 486 83 162 487 85 162 488 81 163 489 86 163 490 82 163 491 87 164 492 86 164 493 80 164 494 83 165 495 84 165 496 80 165 497 76 166 498 74 166 499 85 166 500 86 167 501 78 167 502 85 167 503 87 168 504 73 168 505 86 168 506 84 169 507 74 169 508 87 169 509 91 170 510 88 170 511 90 170 512 93 171 513 91 171 514 92 171 515 95 172 516 93 172 517 94 172 518 95 173 519 94 173 520 88 173 521 99 174 522 96 174 523 98 174 524 95 175 525 88 175 526 93 175 527 100 176 528 99 176 529 101 176 530 102 177 531 101 177 532 97 177 533 103 178 534 102 178 535 96 178 536 99 179 537 100 179 538 96 179 539 90 180 540 100 180 541 92 180 542 102 181 543 94 181 544 101 181 545 103 182 546 89 182 547 102 182 548 100 183 549 90 183 550 103 183 551</p>
        </polylist>
      </mesh>
    </geometry>
  </library_geometries>
  <library_controllers/>
  <library_visual_scenes>
    <visual_scene id="Scene" name="Scene">
      <node id="ShipB" name="ShipB" type="NODE">
        <matrix sid="transform">1 0 0 0 0 1 0 0 0 0 1 0 0 0 0 1</matrix>
        <instance_geometry url="#polySurface25_001-mesh">
          <bind_material>
            <technique_common>
              <instance_material symbol="initialShadingGroup_004-material" target="#initialShadingGroup_004-material"/>
            </technique_common>
          </bind_material>
        </instance_geometry>
        <node id="ShipAttachBones" name="ShipAttachBones" type="NODE">
          <matrix sid="transform">1.955431 4.34193e-16 4.34193e-16 0 4.34193e-16 1.47631e-7 -1.955431 0.1366021 -4.34193e-16 1.955431 1.47631e-7 0 0 0 0 1</matrix>
          <node id="MainCenter" name="MainCenter" sid="MainCenter" type="JOINT">
            <matrix sid="transform">1 0 0 0 0 0 -1 0 0 1 0 0 0 0 0 1</matrix>
            <node id="ForwardConnectorType" name="ForwardConnectorType" sid="ForwardConnectorType" type="JOINT">
              <matrix sid="transform">1 0 0 0 2.22045e-16 1 -7.54979e-8 1 0 7.54979e-8 1 0 0 0 0 1</matrix>
            </node>
          </node>
          <node id="TopCenter" name="TopCenter" sid="TopCenter" type="JOINT">
            <matrix sid="transform">1 8.88178e-16 6.14391e-8 0 -1.18421e-8 0.9812489 0.1927452 0 -6.0287e-8 -0.1927452 0.9812489 0 0 0 0 1</matrix>
            <node id="TopForwardConnectorType" name="TopForwardConnectorType" sid="TopForwardConnectorType" type="JOINT">
              <matrix sid="transform">1 -6.0287e-8 1.18421e-8 0 -7.63676e-16 -0.1927452 -0.9812487 0.5980192 6.14391e-8 0.9812489 -0.1927451 0 0 0 0 1</matrix>
            </node>
            <node id="TopBackwardConnectorType" name="TopBackwardConnectorType" sid="TopBackwardConnectorType" type="JOINT">
              <matrix sid="transform">1 1.63693e-8 -1.25858e-7 0 1.7755e-8 0.9638539 0.2664312 0.5980192 1.2567e-7 -0.2664312 0.963854 0 0 0 0 1</matrix>
            </node>
          </node>
          <node id="BottomCenter" name="BottomCenter" sid="BottomCenter" type="JOINT">
            <matrix sid="transform">1 0 -9.53682e-7 0 2.16704e-7 -0.9738412 0.2272297 0 -9.28731e-7 -0.2272297 -0.9738454 0 0 0 0 1</matrix>
            <node id="BotForwardConnectorType" name="BotForwardConnectorType" sid="BotForwardConnectorType" type="JOINT">
              <matrix sid="transform">1 -9.28731e-7 -2.16705e-7 0 8.19262e-13 -0.2272297 0.9738412 0.6456086 -9.53679e-7 -0.9738412 -0.2272296 1.49012e-8 0 0 0 1</matrix>
            </node>
            <node id="BotBackwardConnectorType" name="BotBackwardConnectorType" sid="BotBackwardConnectorType" type="JOINT">
              <matrix sid="transform">1 2.21515e-7 6.89177e-7 0 -5.53784e-8 0.9726504 -0.2322739 0.6456086 -7.21781e-7 0.232274 0.9726504 1.49012e-8 0 0 0 1</matrix>
            </node>
          </node>
          <node id="LeftCenter" name="LeftCenter" sid="LeftCenter" type="JOINT">
            <matrix sid="transform">0.01219417 0.9617919 0.2735102 0 -0.9999257 0.01172918 0.003335461 0 -5.96046e-8 -0.2735305 0.9618633 0 0 0 0 1</matrix>
            <node id="LeftForwardConnectorType" name="LeftForwardConnectorType" sid="LeftForwardConnectorType" type="JOINT">
              <matrix sid="transform">0.01219423 3.00274e-8 0.9999256 5.81224e-11 0.9617918 -0.2735304 -0.0117292 0.5955904 0.2735101 0.9618632 -0.003335416 0 0 0 0 1</matrix>
            </node>
            <node id="LeftBackwardConnectorType" name="LeftBackwardConnectorType" sid="LeftBackwardConnectorType" type="JOINT">
              <matrix sid="transform">0.9999256 0.01173048 0.003330819 5.81224e-11 -0.01172916 0.9999312 -4.12762e-4 0.5955904 -0.003335431 3.73602e-4 0.9999944 0 0 0 0 1</matrix>
            </node>
          </node>
          <node id="RightCenter" name="RightCenter" sid="RightCenter" type="JOINT">
            <matrix sid="transform">-1.21538e-7 -0.9725958 -0.2325026 0 1 1.86265e-8 -7.45058e-8 0 5.96046e-8 -0.2325026 0.9725958 0 0 0 0 1</matrix>
            <node id="RightBackwardConnectorType" name="RightBackwardConnectorType" sid="RightBackwardConnectorType" type="JOINT">
              <matrix sid="transform">1 -1.25623e-9 3.98766e-8 0 -6.25878e-9 0.9821891 0.1878954 0.6309667 -3.94024e-8 -0.1878954 0.9821891 0 0 0 0 1</matrix>
            </node>
            <node id="RightForwardConnectorType" name="RightForwardConnectorType" sid="RightForwardConnectorType" type="JOINT">
              <matrix sid="transform">1 1.28796e-9 6.83578e-6 0 6.66599e-6 -0.2216823 -0.9751189 0.6309667 1.51412e-6 0.9751189 -0.2216823 0 0 0 0 1</matrix>
            </node>
          </node>
        </node>
      </node>
    </visual_scene>
  </library_visual_scenes>
  <scene>
    <instance_visual_scene url="#Scene"/>
  </scene>
</COLLADA>